…
Now we will assess using the testing data set.

- In the code chunk below titled `train-fit-lm`, replace “verbatim” with
  “r” just before the code chunk title and update `data_train` to
  whatever R object you assigned your testing data to above.

``` r
test_aug <- augment(slr_train, new_data = hfi_2016_test)
test_aug
```

    ## # A tibble: 33 × 125
    ##    .pred  .resid  year ISO_code countries  region pf_rol_procedural pf_rol_civil
    ##    <dbl>   <dbl> <int> <chr>    <chr>      <chr>              <dbl>        <dbl>
    ##  1  7.30  0.801   2016 ARG      Argentina  Latin…              7.10         5.79
    ##  2  6.59  0.324   2016 ARM      Armenia    Cauca…             NA           NA   
    ##  3  4.32  1.36    2016 AZE      Azerbaijan Cauca…             NA           NA   
    ##  4  8.29 -0.838   2016 BHS      Bahamas    Latin…              6.93         6.01
    ##  5  6.02 -0.718   2016 BGD      Bangladesh South…              2.33         3.71
    ##  6  8.43 -0.728   2016 BRD      Barbados   Latin…              7.67         6.52
    ##  7  5.88 -0.413   2016 CAF      Central A… Sub-S…             NA           NA   
    ##  8  5.31  1.47    2016 COG      Congo, Re… Sub-S…             NA           NA   
    ##  9  7.16 -0.0940  2016 CIV      Cote d'Iv… Sub-S…              2.99         5.19
    ## 10  9.29 -0.273   2016 EST      Estonia    Easte…              8.77         7.85
    ## # ℹ 23 more rows
    ## # ℹ 117 more variables: pf_rol_criminal <dbl>, pf_rol <dbl>,
    ## #   pf_ss_homicide <dbl>, pf_ss_disappearances_disap <int>,
    ## #   pf_ss_disappearances_violent <dbl>, pf_ss_disappearances_organized <dbl>,
    ## #   pf_ss_disappearances_fatalities <dbl>, pf_ss_disappearances_injuries <dbl>,
    ## #   pf_ss_disappearances <dbl>, pf_ss_women_fgm <dbl>,
    ## #   pf_ss_women_missing <dbl>, pf_ss_women_inheritance_widows <int>, …
…
In order to do these checks we need access to the fitted (predicted)
values and the residuals. We can use `broom::augment` to calculate
these.

- In the code chunk below titled `augment`, replace “verbatim” with “r”
  just before the code chunk title and update `data_test` to whatever R
  object you assigned your testing data to above.

``` r
train_aug <- augment(slr_train, new_data = hfi_2016_test)

train_aug
```

    ## # A tibble: 33 × 125
    ##    .pred  .resid  year ISO_code countries  region pf_rol_procedural pf_rol_civil
    ##    <dbl>   <dbl> <int> <chr>    <chr>      <chr>              <dbl>        <dbl>
    ##  1  7.30  0.801   2016 ARG      Argentina  Latin…              7.10         5.79
    ##  2  6.59  0.324   2016 ARM      Armenia    Cauca…             NA           NA   
    ##  3  4.32  1.36    2016 AZE      Azerbaijan Cauca…             NA           NA   
    ##  4  8.29 -0.838   2016 BHS      Bahamas    Latin…              6.93         6.01
    ##  5  6.02 -0.718   2016 BGD      Bangladesh South…              2.33         3.71
    ##  6  8.43 -0.728   2016 BRD      Barbados   Latin…              7.67         6.52
    ##  7  5.88 -0.413   2016 CAF      Central A… Sub-S…             NA           NA   
    ##  8  5.31  1.47    2016 COG      Congo, Re… Sub-S…             NA           NA   
    ##  9  7.16 -0.0940  2016 CIV      Cote d'Iv… Sub-S…              2.99         5.19
    ## 10  9.29 -0.273   2016 EST      Estonia    Easte…              8.77         7.85
    ## # ℹ 23 more rows
    ## # ℹ 117 more variables: pf_rol_criminal <dbl>, pf_rol <dbl>,
    ## #   pf_ss_homicide <dbl>, pf_ss_disappearances_disap <int>,
    ## #   pf_ss_disappearances_violent <dbl>, pf_ss_disappearances_organized <dbl>,
    ## #   pf_ss_disappearances_fatalities <dbl>, pf_ss_disappearances_injuries <dbl>,
    ## #   pf_ss_disappearances <dbl>, pf_ss_women_fgm <dbl>,
    ## #   pf_ss_women_missing <dbl>, pf_ss_women_inheritance_widows <int>, …
…
